Extracting DOI from text
…
Let’s use this information to create a unique citation_id based on the row number where citations == NA:

grouped_messy_citations <- messy_citations %>%
  mutate(wrapped = ifelse(is.na(citations), TRUE, FALSE)) %>%
  mutate(
    citation_id = 0,
    citation_id = ifelse(wrapped == TRUE,
      row_number(),
      NA
    )
  )
grouped_messy_citations

## # A tibble: 599 x 3
##    citations                                            wrapped citation_id
##    <chr>                                                <lgl>         <int>
##  1 Fernandez MA, Arnel L, Gould J, McGibbon A, Grant R… FALSE            NA
##  2 Research priorities in fragility fractures of the l… FALSE            NA
##  3 BMJ Open. 2018 Oct 3;8(10):e023301.                  FALSE            NA
##  4 <NA>                                                 TRUE              4
##  5 Costa ML, Achten J, Bruce J, Tutton E, Petrou S, La… FALSE            NA
##  6 Effect of Negative Pressure Wound Therapy vs Standa… FALSE            NA
##  7 JAMA. 2018 Jun ;319(22):2280–2288                    FALSE            NA
##  8 <NA>                                                 TRUE              8
##  9 Costa ML, Achten J, Hennings S, Boota N, Griffin J,… FALSE            NA
## 10 Intramedullary nail fixation versus locking plate f… FALSE            NA
## # … with 589 more rows

Now we can use fill() from tidyr to fill all upwards with our citation_id and also use filter() to throw away the empty NA row.

grouped_messy_citations <- grouped_messy_citations %>%
  fill(citation_id, .direction = "up") %>%
  filter(!is.na(citations))
grouped_messy_citations

## # A tibble: 460 x 3
##    citations                                            wrapped citation_id
##    <chr>                                                <lgl>         <int>
##  1 Fernandez MA, Arnel L, Gould J, McGibbon A, Grant R… FALSE             4
##  2 Research priorities in fragility fractures of the l… FALSE             4
##  3 BMJ Open. 2018 Oct 3;8(10):e023301.                  FALSE             4
##  4 Costa ML, Achten J, Bruce J, Tutton E, Petrou S, La… FALSE             8
##  5 Effect of Negative Pressure Wound Therapy vs Standa… FALSE             8
##  6 JAMA. 2018 Jun ;319(22):2280–2288                    FALSE             8
##  7 Costa ML, Achten J, Hennings S, Boota N, Griffin J,… FALSE            12
##  8 Intramedullary nail fixation versus locking plate f… FALSE            12
##  9 Health Technol Assess 2018;22(25)                    FALSE            12
## 10 Sims AL, Parsons N, Achten J, Griffin XL, Costa ML,… FALSE            16
## # … with 450 more rows

Not all of the citations wrapped over multiple rows, these currently have the citation_id of NA. Let’s replace those with the citations row_number() and convert this to a character column:

grouped_messy_citations <- grouped_messy_citations %>%
  mutate(
    citation_id = ifelse(is.na(citation_id), row_number(), citation_id),
    citation_id = as.character(citation_id)
  )
grouped_messy_citations

## # A tibble: 460 x 3
##    citations                                            wrapped citation_id
##    <chr>                                                <lgl>   <chr>      
##  1 Fernandez MA, Arnel L, Gould J, McGibbon A, Grant R… FALSE   4          
##  2 Research priorities in fragility fractures of the l… FALSE   4          
##  3 BMJ Open. 2018 Oct 3;8(10):e023301.                  FALSE   4          
##  4 Costa ML, Achten J, Bruce J, Tutton E, Petrou S, La… FALSE   8          
##  5 Effect of Negative Pressure Wound Therapy vs Standa… FALSE   8          
##  6 JAMA. 2018 Jun ;319(22):2280–2288                    FALSE   8          
##  7 Costa ML, Achten J, Hennings S, Boota N, Griffin J,… FALSE   12         
##  8 Intramedullary nail fixation versus locking plate f… FALSE   12         
##  9 Health Technol Assess 2018;22(25)                    FALSE   12         
## 10 Sims AL, Parsons N, Achten J, Griffin XL, Costa ML,… FALSE   16         
## # … with 450 more rows

Now we can group_by(citation_id) and paste() together the citations to create a neat set of citations!

clean_citations <- grouped_messy_citations %>%
  group_by(citation_id) %>%
  mutate(citations = citations %>% paste(collapse = " ")) %>%
  ungroup() %>%
  select(-wrapped, -citation_id) %>%
  unique()
clean_citations

## # A tibble: 266 x 1
##    citations                                                               
##    <chr>                                                                   
##  1 Fernandez MA, Arnel L, Gould J, McGibbon A, Grant R, Bell P, White S, B…
##  2 Costa ML, Achten J, Bruce J, Tutton E, Petrou S, Lamb SE, Parsons NR, U…
##  3 Costa ML, Achten J, Hennings S, Boota N, Griffin J, Petrou S, Maredza M…
##  4 Sims AL, Parsons N, Achten J, Griffin XL, Costa ML, Reed MR. A randomiz…
##  5 Costa ML, Achten J, Foguet P, Parsons NR; Young Adult Hip Arthroplasty …
##  6 Costa ML, Achten J, Griffin J, Petrou S, Pallister I, Lamb SE, Parsons …
##  7 Wall PDH, Parsons NR, Parsons H, Achten J, Balasubramanian S, Thompson …
##  8 Pulikottil-Jacob R, Connock M, Kandala NB, Mistry H, Grove A, Freeman K…
##  9 Perry DC, Metcalfe D, Griffin XL, Costa ML. Inequalities in use of tota…
## 10 Dreinhöfer KE, Mitchell PJ, Bégué T, Cooper C, Costa ML, Falaschi P, He…
## # … with 256 more rows
…
