Crawling DOI from a SAGE
…
We use the value() function to extract the value of our future calculations and unnest() as previously:

scraped_dois %>%
  mutate(dois = map(dois, ~value(.x))) %>%
  unnest(dois) %>%
  filter(!is.na(dois)) %>%
  rename(doi = dois) %>%
  mutate(doi = str_replace(doi, ".*/10.", "http://doi.org/10.")) %>%
  select(-issue_url)

## # A tibble: 459 x 3
##    volume issue doi                                      
##     <int> <dbl> <chr>                                    
##  1      1     1 http://doi.org/10.1177/175899839600100401
##  2      1     1 http://doi.org/10.1177/175899839600100402
##  3      1     1 http://doi.org/10.1177/175899839600100403
##  4      1     1 http://doi.org/10.1177/175899839600100404
##  5      1     1 http://doi.org/10.1177/175899839600100405
##  6      1     1 http://doi.org/10.1177/175899839600100406
##  7      1     1 http://doi.org/10.1177/175899839600100407
##  8      1     1 http://doi.org/10.1177/175899839600100408
##  9      1     1 http://doi.org/10.1177/175899839600100409
## 10      1     1 http://doi.org/10.1177/175899839600100410
## # … with 449 more rows
…
